5

Be  0.0000000000  0.0000000000 -0.6579871830
N   0.0000000000  0.0000000000  0.8635128170
H   0.9373144310  0.0000000000  1.2450699060
H  -0.4686572160 -0.8117381090  1.2450699060
H  -0.4686572160  0.8117381090  1.2450699060
