12

H   0.9239610000  1.2319560000 -1.9600000000
H  -0.9239610000  1.2319560000 -1.9600000000
H   0.9239610000 -1.2319560000 -1.9600000000
H  -0.9239610000 -1.2319560000 -1.9600000000
C   0.0000000000  0.6671760000 -1.9600000000
C   0.0000000000 -0.6671760000 -1.9600000000
H  -0.9239610000  1.2319560000  1.9600000000
H   0.9239610000  1.2319560000  1.9600000000
H   0.9239610000 -1.2319560000  1.9600000000
H  -0.9239610000 -1.2319560000  1.9600000000
C   0.0000000000  0.6671760000  1.9600000000
C   0.0000000000 -0.6671760000  1.9600000000
